<svg width="508.33" height="508.36" xmlns="http://www.w3.org/2000/svg">
 <defs>
  <mask y="-122.64" x="-121.52" width="1221.81" maskUnits="userSpaceOnUse" id="mask" height="716.8">
   <g id="svg_1">
    <g id="mask-2">
     <path fill="#ffffff" id="path-1" d="m-121.52,-122.64l1221.82,0l0,716.82l-1221.82,0l0,-716.8l0,-0.02z" class="cls-1"/>
    </g>
   </g>
  </mask>
 </defs>
 <title/>
 <g>
  <title>background</title>
  <rect fill="none" id="canvas_background" height="402" width="582" y="-1" x="-1"/>
 </g>
 <g>
  <title>Layer 1</title>
  <path transform="translate(-578.1189575195312,20.684040069580078) " fill-rule="evenodd" fill="#fafafa" id="svg_2" d="m481.1016,29.968402c11.45,15.13 16.61,40.21 19.15,70.7c3.36,45.5 4.71,100.1 6,156.52c-1.67,57.47 -2.35,115.43 -6,156.52c-2.88,31.54 -9,52.66 -19.22,65.47c-13,12.79 -37.94,23.59 -73.5,26.15c-43.25,3.69 -96.61,3.65 -155.48,5.1c-65.44,-1.12 -109.82,-0.64 -156.38,-5.08c-36.32,-2.52 -60.08,-13.19 -74.7,-26.07c-10.83,-14.54 -14,-30 -17,-66.24c-3.75,-41.85 -4.58,-98.56 -6,-155.54c2.13,-56.68 2.26,-113.81 6.03,-156.51c2.53,-33.69 6.52,-56.34 16.75,-70.74c14.35,-12.23 38.83,-18.31 75.35,-21.31c50,-5.85 102.06,-7 155.88,-6.87c55.39,0.09 108.56,1.67 156,6.34c32,2.56 58.48,8.07 73.07,21.56l0.05,0z" class="cls-2"/>
  <path fill="#fc6d26" id="path46" d="m398.49,255.65l-16.84,-51.81l-33.37,-102.66a5.74,5.74 0 0 0 -10.91,0l-33.36,102.65l-110.84,0l-33.33,-102.65a5.74,5.74 0 0 0 -10.91,0l-33.36,102.65l-16.83,51.81a11.47,11.47 0 0 0 4.17,12.82l145.7,105.88l145.71,-105.87a11.47,11.47 0 0 0 4.17,-12.82" class="cls-4"/>
  <path fill="#e24329" id="path50" d="m248.61,374.34l0,0l55.4,-170.5l-110.84,0l55.4,170.5l0.04,0z" class="cls-5"/>
  <path fill="#fc6d26" id="path58" d="m248.61,374.34l-55.44,-170.51l-77.6,0l133,170.5l0.04,0.01z" class="cls-4"/>
  <path fill="#fca326" id="path66" d="m115.57,203.83l0,0l-16.84,51.81a11.47,11.47 0 0 0 4.17,12.82l145.71,105.88l-133,-170.5l-0.04,-0.01z" class="cls-6"/>
  <path fill="#e24329" id="path74" d="m115.57,203.83l77.6,0l-33.33,-102.65a5.73,5.73 0 0 0 -10.91,0l-33.36,102.65z" class="cls-5"/>
  <path fill="#fc6d26" id="path78" d="m248.61,374.34l55.4,-170.5l77.64,0l-133,170.5l-0.04,0z" class="cls-4"/>
  <path fill="#fca326" id="path82" d="m381.65,203.83l0,0l16.84,51.81a11.47,11.47 0 0 1 -4.17,12.82l-145.71,105.88l133,-170.5l0.04,-0.01z" class="cls-6"/>
  <path fill="#e24329" id="path86" d="m381.65,203.83l-77.64,0l33.37,-102.65a5.73,5.73 0 0 1 10.91,0l33.37,102.69l-0.01,-0.04z" class="cls-5"/>
 </g>
</svg>